\relax 
\providecommand\hyper@newdestlabel[2]{}
\@writefile{toc}{\contentsline {chapter}{\numberline {4}Arhitektura i dizajn sustava}{28}{chapter.4}\protected@file@percent }
\@writefile{lof}{\addvspace {10\p@ }}
\@writefile{lot}{\addvspace {10\p@ }}
\@writefile{lof}{\contentsline {figure}{\numberline {4.1}{\ignorespaces Skica sustava}}{28}{figure.4.1}\protected@file@percent }
\newlabel{fig:sd3}{{4.1}{28}{Skica sustava}{figure.4.1}{}}
\@writefile{lof}{\contentsline {figure}{\numberline {4.2}{\ignorespaces Struktura \textit  {Firebase Firestore} modela}}{29}{figure.4.2}\protected@file@percent }
\newlabel{fig:sd1}{{4.2}{29}{Struktura \textit {Firebase Firestore} modela}{figure.4.2}{}}
\@writefile{lof}{\contentsline {figure}{\numberline {4.3}{\ignorespaces Hipotetska struktura \textit  {Firebase Firestore} modela}}{30}{figure.4.3}\protected@file@percent }
\newlabel{fig:sd2}{{4.3}{30}{Hipotetska struktura \textit {Firebase Firestore} modela}{figure.4.3}{}}
\@writefile{toc}{\contentsline {section}{\numberline {4.1}Baza podataka}{30}{section.4.1}\protected@file@percent }
\gdef \LT@ii {\LT@entry 
    {4}{87.427pt}\LT@entry 
    {4}{87.02701pt}\LT@entry 
    {4}{261.15671pt}}
\@writefile{toc}{\contentsline {subsection}{\numberline {4.1.1}Opis tablica}{31}{subsection.4.1.1}\protected@file@percent }
\gdef \LT@iii {\LT@entry 
    {4}{87.427pt}\LT@entry 
    {4}{87.02701pt}\LT@entry 
    {4}{261.15671pt}}
\gdef \LT@iv {\LT@entry 
    {4}{87.427pt}\LT@entry 
    {4}{87.02701pt}\LT@entry 
    {4}{261.15671pt}}
\gdef \LT@v {\LT@entry 
    {4}{87.427pt}\LT@entry 
    {4}{87.02701pt}\LT@entry 
    {4}{261.15671pt}}
\gdef \LT@vi {\LT@entry 
    {4}{87.427pt}\LT@entry 
    {4}{87.02701pt}\LT@entry 
    {4}{261.15671pt}}
\gdef \LT@vii {\LT@entry 
    {4}{87.427pt}\LT@entry 
    {4}{87.02701pt}\LT@entry 
    {4}{261.15671pt}}
\gdef \LT@viii {\LT@entry 
    {4}{87.427pt}\LT@entry 
    {4}{87.02701pt}\LT@entry 
    {4}{261.15671pt}}
\gdef \LT@ix {\LT@entry 
    {4}{87.427pt}\LT@entry 
    {4}{87.02701pt}\LT@entry 
    {4}{261.15671pt}}
\gdef \LT@x {\LT@entry 
    {4}{87.427pt}\LT@entry 
    {4}{87.02701pt}\LT@entry 
    {4}{261.15671pt}}
\@writefile{toc}{\contentsline {subsection}{\numberline {4.1.2}Dijagram baze podataka}{36}{subsection.4.1.2}\protected@file@percent }
\@writefile{lof}{\contentsline {figure}{\numberline {4.4}{\ignorespaces ER dijagram baze podataka}}{36}{figure.4.4}\protected@file@percent }
\newlabel{fig:sd3}{{4.4}{36}{ER dijagram baze podataka}{figure.4.4}{}}
\@writefile{toc}{\contentsline {section}{\numberline {4.2}Dijagram razreda}{37}{section.4.2}\protected@file@percent }
\@writefile{toc}{\contentsline {subsection}{\numberline {4.2.1}Dijagram razreda Firebase usluga}{37}{subsection.4.2.1}\protected@file@percent }
\@writefile{lof}{\contentsline {figure}{\numberline {4.5}{\ignorespaces Dijagram razreda Firebase usluga}}{38}{figure.4.5}\protected@file@percent }
\newlabel{fig:sd3}{{4.5}{38}{Dijagram razreda Firebase usluga}{figure.4.5}{}}
\@writefile{toc}{\contentsline {subsection}{\numberline {4.2.2}Dijagram razreda paketa \textit  {authentication}}{40}{subsection.4.2.2}\protected@file@percent }
\@writefile{lof}{\contentsline {figure}{\numberline {4.6}{\ignorespaces Dijagram razreda sadržanih u paketu \textit  {authentication}}}{41}{figure.4.6}\protected@file@percent }
\newlabel{fig:sd3}{{4.6}{41}{Dijagram razreda sadržanih u paketu \textit {authentication}}{figure.4.6}{}}
\@writefile{lof}{\contentsline {figure}{\numberline {4.7}{\ignorespaces Dijagram razreda sadržanih u paketu \textit  {authentication}}}{41}{figure.4.7}\protected@file@percent }
\newlabel{fig:sd3}{{4.7}{41}{Dijagram razreda sadržanih u paketu \textit {authentication}}{figure.4.7}{}}
\@writefile{toc}{\contentsline {subsection}{\numberline {4.2.3}Dijagram razreda paketa \textit  {organizator}}{42}{subsection.4.2.3}\protected@file@percent }
\@writefile{lof}{\contentsline {figure}{\numberline {4.8}{\ignorespaces Dijagram razreda sadržanih u paketu \textit  {organizator}}}{42}{figure.4.8}\protected@file@percent }
\newlabel{fig:sd3}{{4.8}{42}{Dijagram razreda sadržanih u paketu \textit {organizator}}{figure.4.8}{}}
\@writefile{lof}{\contentsline {figure}{\numberline {4.9}{\ignorespaces Dijagram razreda sadržanih u paketu \textit  {organizator}}}{43}{figure.4.9}\protected@file@percent }
\newlabel{fig:sd3}{{4.9}{43}{Dijagram razreda sadržanih u paketu \textit {organizator}}{figure.4.9}{}}
\@writefile{toc}{\contentsline {subsection}{\numberline {4.2.4}Dijagram razreda paketa \textit  {voditelj}}{43}{subsection.4.2.4}\protected@file@percent }
\@writefile{lof}{\contentsline {figure}{\numberline {4.10}{\ignorespaces Dijagram razreda sadržanih u paketu \textit  {voditelj}}}{44}{figure.4.10}\protected@file@percent }
\newlabel{fig:sd3}{{4.10}{44}{Dijagram razreda sadržanih u paketu \textit {voditelj}}{figure.4.10}{}}
\@writefile{lof}{\contentsline {figure}{\numberline {4.11}{\ignorespaces Dijagram razreda sadržanih u paketu \textit  {voditelj}}}{45}{figure.4.11}\protected@file@percent }
\newlabel{fig:sd3}{{4.11}{45}{Dijagram razreda sadržanih u paketu \textit {voditelj}}{figure.4.11}{}}
\@writefile{toc}{\contentsline {subsection}{\numberline {4.2.5}Dijagram razreda paketa \textit  {izvođač}}{45}{subsection.4.2.5}\protected@file@percent }
\@writefile{lof}{\contentsline {figure}{\numberline {4.12}{\ignorespaces Dijagram razreda sadržanih u paketu \textit  {izvođač}}}{46}{figure.4.12}\protected@file@percent }
\newlabel{fig:sd3}{{4.12}{46}{Dijagram razreda sadržanih u paketu \textit {izvođač}}{figure.4.12}{}}
\@writefile{lof}{\contentsline {figure}{\numberline {4.13}{\ignorespaces Dijagram razreda sadržanih u paketu \textit  {izvođač}}}{47}{figure.4.13}\protected@file@percent }
\newlabel{fig:sd3}{{4.13}{47}{Dijagram razreda sadržanih u paketu \textit {izvođač}}{figure.4.13}{}}
\@writefile{toc}{\contentsline {subsection}{\numberline {4.2.6}Dijagram razreda paketa \textit  {common}}{47}{subsection.4.2.6}\protected@file@percent }
\@writefile{lof}{\contentsline {figure}{\numberline {4.14}{\ignorespaces Dijagram razreda sadržanih u paketu \textit  {common}}}{48}{figure.4.14}\protected@file@percent }
\newlabel{fig:sd3}{{4.14}{48}{Dijagram razreda sadržanih u paketu \textit {common}}{figure.4.14}{}}
\@writefile{lof}{\contentsline {figure}{\numberline {4.15}{\ignorespaces Dijagram razreda sadržanih u paketu \textit  {common}}}{49}{figure.4.15}\protected@file@percent }
\newlabel{fig:sd3}{{4.15}{49}{Dijagram razreda sadržanih u paketu \textit {common}}{figure.4.15}{}}
\@writefile{toc}{\contentsline {section}{\numberline {4.3}Dijagram stanja}{50}{section.4.3}\protected@file@percent }
\@writefile{lof}{\contentsline {figure}{\numberline {4.16}{\ignorespaces Dijagram stanja voditelja}}{50}{figure.4.16}\protected@file@percent }
\newlabel{fig:stm}{{4.16}{50}{Dijagram stanja voditelja}{figure.4.16}{}}
\@writefile{toc}{\contentsline {section}{\numberline {4.4}Dijagram aktivnosti}{52}{section.4.4}\protected@file@percent }
\@writefile{lof}{\contentsline {figure}{\numberline {4.17}{\ignorespaces Dijagram aktivnosti otvaranja novog događaja}}{52}{figure.4.17}\protected@file@percent }
\newlabel{fig:da}{{4.17}{52}{Dijagram aktivnosti otvaranja novog događaja}{figure.4.17}{}}
\@writefile{toc}{\contentsline {section}{\numberline {4.5}Dijagram komponenti}{53}{section.4.5}\protected@file@percent }
\@writefile{lof}{\contentsline {figure}{\numberline {4.18}{\ignorespaces Dijagram komponenti}}{53}{figure.4.18}\protected@file@percent }
\newlabel{fig:cd}{{4.18}{53}{Dijagram komponenti}{figure.4.18}{}}
\@setckpt{Arhitektura}{
\setcounter{page}{55}
\setcounter{equation}{0}
\setcounter{enumi}{1}
\setcounter{enumii}{1}
\setcounter{enumiii}{0}
\setcounter{enumiv}{0}
\setcounter{footnote}{0}
\setcounter{mpfootnote}{0}
\setcounter{part}{0}
\setcounter{chapter}{4}
\setcounter{section}{5}
\setcounter{subsection}{0}
\setcounter{subsubsection}{0}
\setcounter{paragraph}{0}
\setcounter{subparagraph}{0}
\setcounter{figure}{18}
\setcounter{table}{9}
\setcounter{parentequation}{0}
\setcounter{LT@tables}{10}
\setcounter{LT@chunks}{4}
\setcounter{Item}{121}
\setcounter{Hfootnote}{0}
\setcounter{bookmark@seq@number}{21}
\setcounter{float@type}{4}
\setcounter{section@level}{0}
}
