\relax 
\providecommand\hyper@newdestlabel[2]{}
\@writefile{toc}{\contentsline {chapter}{Dodatak: Prikaz aktivnosti grupe}{75}{chapter*.6}\protected@file@percent }
\gdef \LT@xi {\LT@entry 
    {5}{180.80544pt}\LT@entry 
    {5}{36.40077pt}\LT@entry 
    {5}{36.40077pt}\LT@entry 
    {5}{36.40077pt}\LT@entry 
    {5}{36.40077pt}\LT@entry 
    {5}{36.40077pt}\LT@entry 
    {5}{36.40077pt}\LT@entry 
    {5}{36.40077pt}}
\@writefile{lof}{\contentsline {figure}{\numberline {6.1}{\ignorespaces Ukupna aktivnost}}{79}{figure.6.1}\protected@file@percent }
\@writefile{lof}{\contentsline {figure}{\numberline {6.2}{\ignorespaces Aktivnost po članovima 1}}{79}{figure.6.2}\protected@file@percent }
\@writefile{lof}{\contentsline {figure}{\numberline {6.3}{\ignorespaces Aktivnost po članovima 2}}{79}{figure.6.3}\protected@file@percent }
\@writefile{lof}{\contentsline {figure}{\numberline {6.4}{\ignorespaces Aktivnost po članovima 3}}{80}{figure.6.4}\protected@file@percent }
\@writefile{lof}{\contentsline {figure}{\numberline {6.5}{\ignorespaces Aktivnost po članovima 4}}{80}{figure.6.5}\protected@file@percent }
\@setckpt{Dodatak}{
\setcounter{page}{81}
\setcounter{equation}{0}
\setcounter{enumi}{7}
\setcounter{enumii}{1}
\setcounter{enumiii}{0}
\setcounter{enumiv}{0}
\setcounter{footnote}{0}
\setcounter{mpfootnote}{0}
\setcounter{part}{0}
\setcounter{chapter}{6}
\setcounter{section}{0}
\setcounter{subsection}{0}
\setcounter{subsubsection}{0}
\setcounter{paragraph}{0}
\setcounter{subparagraph}{0}
\setcounter{figure}{5}
\setcounter{table}{1}
\setcounter{parentequation}{0}
\setcounter{LT@tables}{11}
\setcounter{LT@chunks}{5}
\setcounter{Item}{165}
\setcounter{Hfootnote}{0}
\setcounter{bookmark@seq@number}{32}
\setcounter{float@type}{4}
\setcounter{section@level}{0}
}
