\relax 
\providecommand\hyper@newdestlabel[2]{}
\@writefile{toc}{\contentsline {chapter}{\numberline {5}Implementacija i korisničko sučelje}{55}{chapter.5}\protected@file@percent }
\@writefile{lof}{\addvspace {10\p@ }}
\@writefile{lot}{\addvspace {10\p@ }}
\@writefile{toc}{\contentsline {section}{\numberline {5.1}Korištene tehnologije i alati}{55}{section.5.1}\protected@file@percent }
\@writefile{toc}{\contentsline {section}{\numberline {5.2}Ispitivanje programskog rješenja}{56}{section.5.2}\protected@file@percent }
\@writefile{toc}{\contentsline {subsection}{\numberline {5.2.1}Ispitivanje komponenti}{56}{subsection.5.2.1}\protected@file@percent }
\@writefile{lof}{\contentsline {figure}{\numberline {5.1}{\ignorespaces Unit Test 1}}{56}{figure.5.1}\protected@file@percent }
\@writefile{lof}{\contentsline {figure}{\numberline {5.2}{\ignorespaces Unit Test 2}}{57}{figure.5.2}\protected@file@percent }
\@writefile{lof}{\contentsline {figure}{\numberline {5.3}{\ignorespaces Unit Test 3}}{58}{figure.5.3}\protected@file@percent }
\@writefile{lof}{\contentsline {figure}{\numberline {5.4}{\ignorespaces Unit Test 4}}{59}{figure.5.4}\protected@file@percent }
\@writefile{lof}{\contentsline {figure}{\numberline {5.5}{\ignorespaces Unit Test 5}}{60}{figure.5.5}\protected@file@percent }
\@writefile{lof}{\contentsline {figure}{\numberline {5.6}{\ignorespaces Unit Test 6}}{61}{figure.5.6}\protected@file@percent }
\@writefile{toc}{\contentsline {subsection}{\numberline {5.2.2}Ispitivanje sustava}{62}{subsection.5.2.2}\protected@file@percent }
\@writefile{lof}{\contentsline {figure}{\numberline {5.7}{\ignorespaces Test 1}}{62}{figure.5.7}\protected@file@percent }
\@writefile{lof}{\contentsline {figure}{\numberline {5.8}{\ignorespaces Test 2.1}}{63}{figure.5.8}\protected@file@percent }
\@writefile{lof}{\contentsline {figure}{\numberline {5.9}{\ignorespaces Test 2.2}}{64}{figure.5.9}\protected@file@percent }
\@writefile{lof}{\contentsline {figure}{\numberline {5.10}{\ignorespaces Test 3.1}}{65}{figure.5.10}\protected@file@percent }
\@writefile{lof}{\contentsline {figure}{\numberline {5.11}{\ignorespaces Test 3.2}}{65}{figure.5.11}\protected@file@percent }
\@writefile{lof}{\contentsline {figure}{\numberline {5.12}{\ignorespaces Test 4}}{66}{figure.5.12}\protected@file@percent }
\@writefile{toc}{\contentsline {section}{\numberline {5.3}Dijagram razmještaja}{67}{section.5.3}\protected@file@percent }
\@writefile{lof}{\contentsline {figure}{\numberline {5.13}{\ignorespaces Dijagram razmještaja}}{67}{figure.5.13}\protected@file@percent }
\@writefile{toc}{\contentsline {section}{\numberline {5.4}Upute za puštanje u pogon}{68}{section.5.4}\protected@file@percent }
\@writefile{lof}{\contentsline {figure}{\numberline {5.14}{\ignorespaces Generiranje ključa za potpis aplikacije}}{68}{figure.5.14}\protected@file@percent }
\newlabel{fig:sd3}{{5.14}{68}{Generiranje ključa za potpis aplikacije}{figure.5.14}{}}
\@setckpt{Implementacija}{
\setcounter{page}{70}
\setcounter{equation}{0}
\setcounter{enumi}{1}
\setcounter{enumii}{1}
\setcounter{enumiii}{0}
\setcounter{enumiv}{0}
\setcounter{footnote}{0}
\setcounter{mpfootnote}{0}
\setcounter{part}{0}
\setcounter{chapter}{5}
\setcounter{section}{4}
\setcounter{subsection}{0}
\setcounter{subsubsection}{0}
\setcounter{paragraph}{0}
\setcounter{subparagraph}{0}
\setcounter{figure}{14}
\setcounter{table}{0}
\setcounter{parentequation}{0}
\setcounter{LT@tables}{10}
\setcounter{LT@chunks}{4}
\setcounter{Item}{154}
\setcounter{Hfootnote}{0}
\setcounter{bookmark@seq@number}{28}
\setcounter{float@type}{4}
\setcounter{section@level}{0}
}
