\relax 
\providecommand\hyper@newdestlabel[2]{}
\@writefile{toc}{\contentsline {chapter}{\numberline {3}Specifikacija programske potpore}{9}{chapter.3}\protected@file@percent }
\@writefile{lof}{\addvspace {10\p@ }}
\@writefile{lot}{\addvspace {10\p@ }}
\@writefile{toc}{\contentsline {section}{\numberline {3.1}Funkcionalni zahtjevi}{9}{section.3.1}\protected@file@percent }
\@writefile{toc}{\contentsline {subsection}{\numberline {3.1.1}Obrasci uporabe}{11}{subsection.3.1.1}\protected@file@percent }
\@writefile{toc}{\contentsline {subsubsection}{Opis obrazaca uporabe}{11}{subsubsection*.2}\protected@file@percent }
\@writefile{toc}{\contentsline {subsubsection}{Dijagrami obrazaca uporabe}{20}{subsubsection*.3}\protected@file@percent }
\@writefile{lof}{\contentsline {figure}{\numberline {3.1}{\ignorespaces Dijagram obrasca uporabe, funkcionalnost neregistriranog korisnika, registriranog korisnika, administratora i izvođača}}{20}{figure.3.1}\protected@file@percent }
\newlabel{fig:ucd1}{{3.1}{20}{Dijagram obrasca uporabe, funkcionalnost neregistriranog korisnika, registriranog korisnika, administratora i izvođača}{figure.3.1}{}}
\@writefile{lof}{\contentsline {figure}{\numberline {3.2}{\ignorespaces Dijagram obrasca uporabe, funkcionalnost organizatora}}{21}{figure.3.2}\protected@file@percent }
\newlabel{fig:ucd2}{{3.2}{21}{Dijagram obrasca uporabe, funkcionalnost organizatora}{figure.3.2}{}}
\@writefile{lof}{\contentsline {figure}{\numberline {3.3}{\ignorespaces Dijagram obrasca uporabe, funkcionalnost voditelja}}{22}{figure.3.3}\protected@file@percent }
\newlabel{fig:ucd3}{{3.3}{22}{Dijagram obrasca uporabe, funkcionalnost voditelja}{figure.3.3}{}}
\@writefile{toc}{\contentsline {subsection}{\numberline {3.1.2}Sekvencijski dijagrami}{23}{subsection.3.1.2}\protected@file@percent }
\@writefile{lof}{\contentsline {figure}{\numberline {3.4}{\ignorespaces Sekvencijski dijagram za UC7}}{23}{figure.3.4}\protected@file@percent }
\newlabel{fig:sd1}{{3.4}{23}{Sekvencijski dijagram za UC7}{figure.3.4}{}}
\@writefile{lof}{\contentsline {figure}{\numberline {3.5}{\ignorespaces Sekvencijski dijagram za UC17}}{24}{figure.3.5}\protected@file@percent }
\newlabel{fig:sd2}{{3.5}{24}{Sekvencijski dijagram za UC17}{figure.3.5}{}}
\@writefile{lof}{\contentsline {figure}{\numberline {3.6}{\ignorespaces Sekvencijski dijagram za UC21}}{25}{figure.3.6}\protected@file@percent }
\newlabel{fig:sd3}{{3.6}{25}{Sekvencijski dijagram za UC21}{figure.3.6}{}}
\@writefile{lof}{\contentsline {figure}{\numberline {3.7}{\ignorespaces Sekvencijski dijagram za UC23}}{26}{figure.3.7}\protected@file@percent }
\newlabel{fig:sd4}{{3.7}{26}{Sekvencijski dijagram za UC23}{figure.3.7}{}}
\@writefile{toc}{\contentsline {section}{\numberline {3.2}Ostali zahtjevi}{27}{section.3.2}\protected@file@percent }
\@setckpt{Specifikacija_programske_potpore}{
\setcounter{page}{28}
\setcounter{equation}{0}
\setcounter{enumi}{1}
\setcounter{enumii}{1}
\setcounter{enumiii}{0}
\setcounter{enumiv}{0}
\setcounter{footnote}{0}
\setcounter{mpfootnote}{0}
\setcounter{part}{0}
\setcounter{chapter}{3}
\setcounter{section}{2}
\setcounter{subsection}{0}
\setcounter{subsubsection}{0}
\setcounter{paragraph}{0}
\setcounter{subparagraph}{0}
\setcounter{figure}{7}
\setcounter{table}{0}
\setcounter{parentequation}{0}
\setcounter{LT@tables}{1}
\setcounter{LT@chunks}{4}
\setcounter{Item}{121}
\setcounter{Hfootnote}{0}
\setcounter{bookmark@seq@number}{7}
\setcounter{float@type}{4}
\setcounter{section@level}{0}
}
